it\unipd\dei\webapp\resource\Message.class
it\unipd\dei\webapp\servlet\SearchEmployeeBySalaryServlet.class
it\unipd\dei\webapp\servlet\AbstractDatabaseServlet.class
it\unipd\dei\webapp\resource\Employee.class
it\unipd\dei\webapp\database\CreateEmployeeDatabase.class
it\unipd\dei\webapp\database\SearchEmployeeBySalaryDatabase.class
it\unipd\dei\webapp\servlet\CreateEmployeeServlet.class
